ALL_sm_bot_total/simulation/qsim/line_follow_algo.msim.vcd
$comment
	File created using the following command:
		vcd file line_follow_algo.msim.vcd -direction
$end
$date
	Tue Feb 02 20:57:16 2021
$end
$version
	ModelSim Version 10.5b
$end
$timescale
	1ps
$end

$scope module sm_0535_Line_follower_vlg_vec_tst $end
$var reg 1 ! clk_adc $end
$var reg 1 " clk_sm_bot $end
$var reg 1 # dout_adc $end
$var wire 1 $ chip_select_adc $end
$var wire 1 % clk_mod_adc $end
$var wire 1 & din_adc $end
$var wire 1 ' pwm_A1_A $end
$var wire 1 ( pwm_A1_B $end
$var wire 1 ) pwm_B1_A $end
$var wire 1 * pwm_B1_B $end

$scope module i1 $end
$var wire 1 + gnd $end
$var wire 1 , vcc $end
$var wire 1 - unknown $end
$var tri1 1 . devclrn $end
$var tri1 1 / devpor $end
$var tri1 1 0 devoe $end
$var wire 1 1 chip_select_adc~output_o $end
$var wire 1 2 din_adc~output_o $end
$var wire 1 3 clk_mod_adc~output_o $end
$var wire 1 4 pwm_A1_A~output_o $end
$var wire 1 5 pwm_A1_B~output_o $end
$var wire 1 6 pwm_B1_A~output_o $end
$var wire 1 7 pwm_B1_B~output_o $end
$var wire 1 8 clk_adc~input_o $end
$var wire 1 9 clk_adc~inputclkctrl_outclk $end
$var wire 1 : line_sensor|Add0~0_combout $end
$var wire 1 ; line_sensor|sclk_counter~1_combout $end
$var wire 1 < line_sensor|Add0~1 $end
$var wire 1 = line_sensor|Add0~2_combout $end
$var wire 1 > line_sensor|sclk_counter~2_combout $end
$var wire 1 ? line_sensor|Add0~3 $end
$var wire 1 @ line_sensor|Add0~4_combout $end
$var wire 1 A line_sensor|Add0~5 $end
$var wire 1 B line_sensor|Add0~6_combout $end
$var wire 1 C line_sensor|Equal3~0_combout $end
$var wire 1 D line_sensor|Add0~7 $end
$var wire 1 E line_sensor|Add0~8_combout $end
$var wire 1 F line_sensor|sclk_counter~0_combout $end
$var wire 1 G line_sensor|r_chip_select~1_combout $end
$var wire 1 H line_sensor|Equal0~0_combout $end
$var wire 1 I line_sensor|r_chip_select~2_combout $end
$var wire 1 J line_sensor|r_chip_select~0_combout $end
$var wire 1 K line_sensor|Selector0~0_combout $end
$var wire 1 L line_sensor|current_ch~0_combout $end
$var wire 1 M line_sensor|Equal3~1_combout $end
$var wire 1 N line_sensor|Equal0~1_combout $end
$var wire 1 O line_sensor|current_ch~1_combout $end
$var wire 1 P line_sensor|current_ch~2_combout $end
$var wire 1 Q line_sensor|r_din~0_combout $end
$var wire 1 R line_sensor|r_din~1_combout $end
$var wire 1 S line_sensor|r_din~2_combout $end
$var wire 1 T line_sensor|r_din~q $end
$var wire 1 U clk_sm_bot~input_o $end
$var wire 1 V clk_sm_bot~inputclkctrl_outclk $end
$var wire 1 W follow_algo|r_speed_a1_b[0]~1_combout $end
$var wire 1 X follow_algo|previous_node[0]~feeder_combout $end
$var wire 1 Y follow_algo|current_node[1]~13_combout $end
$var wire 1 Z follow_algo|r_speed_a1_a[1]~3_combout $end
$var wire 1 [ follow_algo|current_node[0]~7_combout $end
$var wire 1 \ follow_algo|previous_node[3]~18_combout $end
$var wire 1 ] follow_algo|r_speed_b1_a[6]~0_combout $end
$var wire 1 ^ follow_algo|WideNor24~0_combout $end
$var wire 1 _ follow_algo|previous_node[0]~7_combout $end
$var wire 1 ` follow_algo|WideOr9~0_combout $end
$var wire 1 a follow_algo|WideOr0~0_combout $end
$var wire 1 b follow_algo|previous_node[0]~2_combout $end
$var wire 1 c follow_algo|Equal2~0_combout $end
$var wire 1 d follow_algo|Equal3~0_combout $end
$var wire 1 e follow_algo|previous_node[0]~0_combout $end
$var wire 1 f follow_algo|WideOr14~0_combout $end
$var wire 1 g follow_algo|WideOr12~0_combout $end
$var wire 1 h follow_algo|previous_node[0]~1_combout $end
$var wire 1 i follow_algo|previous_node[0]~3_combout $end
$var wire 1 j follow_algo|WideOr10~0_combout $end
$var wire 1 k follow_algo|WideOr7~0_combout $end
$var wire 1 l follow_algo|WideOr5~0_combout $end
$var wire 1 m follow_algo|previous_node[0]~4_combout $end
$var wire 1 n follow_algo|previous_node[0]~5_combout $end
$var wire 1 o follow_algo|previous_node[0]~6_combout $end
$var wire 1 p follow_algo|previous_node[0]~8_combout $end
$var wire 1 q follow_algo|previous_node[1]~17_combout $end
$var wire 1 r follow_algo|Equal6~0_combout $end
$var wire 1 s follow_algo|Selector231~0_combout $end
$var wire 1 t follow_algo|current_node[0]~4_combout $end
$var wire 1 u follow_algo|sequence_no~0_combout $end
$var wire 1 v follow_algo|Mux204~0_combout $end
$var wire 1 w follow_algo|sequence_no~q $end
$var wire 1 x follow_algo|Mux204~1_combout $end
$var wire 1 y follow_algo|current_node~14_combout $end
$var wire 1 z follow_algo|current_node~0_combout $end
$var wire 1 { follow_algo|current_node[0]~6_combout $end
$var wire 1 | follow_algo|current_node[0]~5_combout $end
$var wire 1 } follow_algo|Mux243~0_combout $end
$var wire 1 ~ follow_algo|Mux243~1_combout $end
$var wire 1 !! follow_algo|Mux243~2_combout $end
$var wire 1 "! follow_algo|Mux243~3_combout $end
$var wire 1 #! follow_algo|Equal15~0_combout $end
$var wire 1 $! follow_algo|Selector348~0_combout $end
$var wire 1 %! follow_algo|Equal18~0_combout $end
$var wire 1 &! follow_algo|Selector410~0_combout $end
$var wire 1 '! follow_algo|Mux243~4_combout $end
$var wire 1 (! follow_algo|Mux243~5_combout $end
$var wire 1 )! follow_algo|current_node[1]~15_combout $end
$var wire 1 *! follow_algo|current_node[1]~16_combout $end
$var wire 1 +! follow_algo|WideNor13~0_combout $end
$var wire 1 ,! follow_algo|previous_node[3]~13_combout $end
$var wire 1 -! follow_algo|previous_node[3]~14_combout $end
$var wire 1 .! follow_algo|previous_node[3]~15_combout $end
$var wire 1 /! follow_algo|previous_node[3]~11_combout $end
$var wire 1 0! follow_algo|previous_node[3]~9_combout $end
$var wire 1 1! follow_algo|previous_node[3]~10_combout $end
$var wire 1 2! follow_algo|previous_node[3]~12_combout $end
$var wire 1 3! follow_algo|previous_node[3]~16_combout $end
$var wire 1 4! follow_algo|current_node[0]~1_combout $end
$var wire 1 5! follow_algo|current_node[0]~3_combout $end
$var wire 1 6! follow_algo|current_node[0]~17_combout $end
$var wire 1 7! follow_algo|Selector232~0_combout $end
$var wire 1 8! follow_algo|Mux244~0_combout $end
$var wire 1 9! follow_algo|Mux244~1_combout $end
$var wire 1 :! follow_algo|Mux244~2_combout $end
$var wire 1 ;! follow_algo|Mux244~3_combout $end
$var wire 1 <! follow_algo|Mux244~4_combout $end
$var wire 1 =! follow_algo|Mux244~5_combout $end
$var wire 1 >! follow_algo|current_node[0]~18_combout $end
$var wire 1 ?! follow_algo|r_speed_a1_a[1]~5_combout $end
$var wire 1 @! follow_algo|r_speed_a1_a[1]~4_combout $end
$var wire 1 A! follow_algo|r_speed_a1_a[0]~12_combout $end
$var wire 1 B! line_sensor|Mux2~0_combout $end
$var wire 1 C! dout_adc~input_o $end
$var wire 1 D! line_sensor|Mux3~0_combout $end
$var wire 1 E! line_sensor|Mux3~1_combout $end
$var wire 1 F! line_sensor|Mux2~3_combout $end
$var wire 1 G! line_sensor|Mux7~2_combout $end
$var wire 1 H! line_sensor|Mux7~0_combout $end
$var wire 1 I! line_sensor|Mux7~1_combout $end
$var wire 1 J! line_sensor|Mux7~3_combout $end
$var wire 1 K! line_sensor|Mux6~0_combout $end
$var wire 1 L! line_sensor|Mux5~1_combout $end
$var wire 1 M! line_sensor|Mux5~0_combout $end
$var wire 1 N! line_sensor|Mux5~2_combout $end
$var wire 1 O! line_sensor|Mux5~3_combout $end
$var wire 1 P! line_sensor|Mux4~2_combout $end
$var wire 1 Q! line_sensor|Mux6~1_combout $end
$var wire 1 R! line_sensor|Mux6~2_combout $end
$var wire 1 S! line_sensor|LessThan0~2_combout $end
$var wire 1 T! line_sensor|Mux4~0_combout $end
$var wire 1 U! line_sensor|Mux4~1_combout $end
$var wire 1 V! line_sensor|r_data_temp[1]~0_combout $end
$var wire 1 W! line_sensor|Mux0~0_combout $end
$var wire 1 X! line_sensor|r_data_temp[1]~1_combout $end
$var wire 1 Y! line_sensor|Mux1~0_combout $end
$var wire 1 Z! line_sensor|Mux8~0_combout $end
$var wire 1 [! line_sensor|Mux8~1_combout $end
$var wire 1 \! line_sensor|Mux8~2_combout $end
$var wire 1 ]! line_sensor|Mux9~0_combout $end
$var wire 1 ^! line_sensor|Mux9~1_combout $end
$var wire 1 _! line_sensor|LessThan0~1_combout $end
$var wire 1 `! line_sensor|Mux0~2_combout $end
$var wire 1 a! line_sensor|Mux0~3_combout $end
$var wire 1 b! line_sensor|Mux0~1_combout $end
$var wire 1 c! line_sensor|Mux2~1_combout $end
$var wire 1 d! line_sensor|Mux2~2_combout $end
$var wire 1 e! line_sensor|Mux1~1_combout $end
$var wire 1 f! line_sensor|Mux1~2_combout $end
$var wire 1 g! line_sensor|LessThan0~0_combout $end
$var wire 1 h! line_sensor|LessThan0~3_combout $end
$var wire 1 i! line_sensor|r_adc_data_1~0_combout $end
$var wire 1 j! line_sensor|r_adc_data_1~1_combout $end
$var wire 1 k! line_sensor|r_adc_data_1~q $end
$var wire 1 l! line_sensor|r_adc_data_2~0_combout $end
$var wire 1 m! line_sensor|r_adc_data_2~1_combout $end
$var wire 1 n! line_sensor|r_adc_data_2~q $end
$var wire 1 o! line_sensor|r_adc_data_0~0_combout $end
$var wire 1 p! line_sensor|r_adc_data_0~q $end
$var wire 1 q! follow_algo|Equal0~0_combout $end
$var wire 1 r! follow_algo|current_node[0]~8_combout $end
$var wire 1 s! follow_algo|current_node[0]~9_combout $end
$var wire 1 t! follow_algo|Selector425~0_combout $end
$var wire 1 u! follow_algo|Mux242~0_combout $end
$var wire 1 v! follow_algo|Selector230~0_combout $end
$var wire 1 w! follow_algo|Mux242~1_combout $end
$var wire 1 x! follow_algo|Selector377~0_combout $end
$var wire 1 y! follow_algo|Mux242~2_combout $end
$var wire 1 z! follow_algo|current_node[2]~11_combout $end
$var wire 1 {! follow_algo|current_node[2]~12_combout $end
$var wire 1 |! follow_algo|current_node[0]~2_combout $end
$var wire 1 }! follow_algo|Mux241~3_combout $end
$var wire 1 ~! follow_algo|Mux241~10_combout $end
$var wire 1 !" follow_algo|Mux241~9_combout $end
$var wire 1 "" follow_algo|current_node[3]~10_combout $end
$var wire 1 #" follow_algo|Mux227~8_combout $end
$var wire 1 $" follow_algo|Mux227~7_combout $end
$var wire 1 %" follow_algo|r_speed_a1_a[1]~0_combout $end
$var wire 1 &" follow_algo|r_speed_a1_a[1]~2_combout $end
$var wire 1 '" follow_algo|r_speed_a1_a[1]~1_combout $end
$var wire 1 (" follow_algo|Mux227~2_combout $end
$var wire 1 )" follow_algo|Mux227~3_combout $end
$var wire 1 *" follow_algo|Mux227~4_combout $end
$var wire 1 +" follow_algo|Mux227~5_combout $end
$var wire 1 ," follow_algo|Mux227~10_combout $end
$var wire 1 -" follow_algo|Mux227~6_combout $end
$var wire 1 ." follow_algo|Mux227~9_combout $end
$var wire 1 /" follow_algo|r_speed_a1_a[1]~9_combout $end
$var wire 1 0" follow_algo|r_speed_a1_a[1]~7_combout $end
$var wire 1 1" follow_algo|r_speed_a1_a[1]~6_combout $end
$var wire 1 2" follow_algo|r_speed_a1_a[1]~8_combout $end
$var wire 1 3" follow_algo|r_speed_a1_a[1]~10_combout $end
$var wire 1 4" follow_algo|Add2~0_combout $end
$var wire 1 5" follow_algo|Add2~16_combout $end
$var wire 1 6" follow_algo|Add2~1 $end
$var wire 1 7" follow_algo|Add2~2_combout $end
$var wire 1 8" follow_algo|Add2~15_combout $end
$var wire 1 9" follow_algo|Add2~3 $end
$var wire 1 :" follow_algo|Add2~4_combout $end
$var wire 1 ;" follow_algo|Add2~17_combout $end
$var wire 1 <" follow_algo|Add2~9 $end
$var wire 1 =" follow_algo|Add2~10_combout $end
$var wire 1 >" follow_algo|Add2~20_combout $end
$var wire 1 ?" follow_algo|Add2~11 $end
$var wire 1 @" follow_algo|Add2~12_combout $end
$var wire 1 A" follow_algo|Add2~14_combout $end
$var wire 1 B" follow_algo|LessThan0~1_combout $end
$var wire 1 C" follow_algo|Add2~5 $end
$var wire 1 D" follow_algo|Add2~6_combout $end
$var wire 1 E" follow_algo|Add2~19_combout $end
$var wire 1 F" follow_algo|Add2~7 $end
$var wire 1 G" follow_algo|Add2~8_combout $end
$var wire 1 H" follow_algo|Add2~18_combout $end
$var wire 1 I" follow_algo|LessThan0~0_combout $end
$var wire 1 J" follow_algo|Mux232~6_combout $end
$var wire 1 K" follow_algo|Mux232~2_combout $end
$var wire 1 L" follow_algo|Mux232~3_combout $end
$var wire 1 M" follow_algo|Mux232~8_combout $end
$var wire 1 N" follow_algo|Mux232~4_combout $end
$var wire 1 O" follow_algo|Mux232~5_combout $end
$var wire 1 P" follow_algo|Mux232~7_combout $end
$var wire 1 Q" follow_algo|Mux231~13_combout $end
$var wire 1 R" follow_algo|Mux233~3_combout $end
$var wire 1 S" follow_algo|r_speed_a1_a[0]~11_combout $end
$var wire 1 T" follow_algo|Mux233~4_combout $end
$var wire 1 U" follow_algo|Mux233~7_combout $end
$var wire 1 V" follow_algo|Mux233~5_combout $end
$var wire 1 W" follow_algo|Mux233~2_combout $end
$var wire 1 X" follow_algo|Mux233~6_combout $end
$var wire 1 Y" follow_algo|r_speed_a1_a[0]~14_combout $end
$var wire 1 Z" follow_algo|r_speed_a1_a[0]~15_combout $end
$var wire 1 [" follow_algo|r_speed_a1_a[0]~13_combout $end
$var wire 1 \" follow_algo|r_speed_a1_a[0]~16_combout $end
$var wire 1 ]" follow_algo|r_speed_a1_a[0]~17_combout $end
$var wire 1 ^" follow_algo|LessThan1~0_combout $end
$var wire 1 _" follow_algo|Mux231~12_combout $end
$var wire 1 `" follow_algo|Mux231~3_combout $end
$var wire 1 a" follow_algo|Mux231~16_combout $end
$var wire 1 b" follow_algo|Mux231~14_combout $end
$var wire 1 c" follow_algo|Mux231~15_combout $end
$var wire 1 d" follow_algo|LessThan1~1_combout $end
$var wire 1 e" follow_algo|Selector349~0_combout $end
$var wire 1 f" follow_algo|Selector154~0_combout $end
$var wire 1 g" follow_algo|Mux228~0_combout $end
$var wire 1 h" follow_algo|Mux228~1_combout $end
$var wire 1 i" follow_algo|Mux228~2_combout $end
$var wire 1 j" follow_algo|Mux228~3_combout $end
$var wire 1 k" follow_algo|Mux228~4_combout $end
$var wire 1 l" follow_algo|Mux228~5_combout $end
$var wire 1 m" follow_algo|LessThan1~2_combout $end
$var wire 1 n" follow_algo|LessThan1~3_combout $end
$var wire 1 o" follow_algo|LessThan2~0_combout $end
$var wire 1 p" follow_algo|LessThan2~1_combout $end
$var wire 1 q" follow_algo|r_speed_a1_b[0]~2_combout $end
$var wire 1 r" follow_algo|r_speed_a1_b[0]~0_combout $end
$var wire 1 s" follow_algo|Mux219~0_combout $end
$var wire 1 t" follow_algo|Mux219~1_combout $end
$var wire 1 u" follow_algo|Selector207~0_combout $end
$var wire 1 v" follow_algo|Mux221~0_combout $end
$var wire 1 w" follow_algo|Selector368~0_combout $end
$var wire 1 x" follow_algo|Mux219~2_combout $end
$var wire 1 y" follow_algo|Mux219~3_combout $end
$var wire 1 z" follow_algo|r_speed_b1_a[0]~3_combout $end
$var wire 1 {" follow_algo|r_speed_a1_b[0]~4_combout $end
$var wire 1 |" follow_algo|r_speed_a1_a[1]~18_combout $end
$var wire 1 }" follow_algo|r_speed_b1_a[0]~1_combout $end
$var wire 1 ~" follow_algo|r_speed_b1_a[0]~2_combout $end
$var wire 1 !# follow_algo|r_speed_a1_b[0]~3_combout $end
$var wire 1 "# follow_algo|r_speed_a1_b[0]~5_combout $end
$var wire 1 ## follow_algo|LessThan2~2_combout $end
$var wire 1 $# follow_algo|Mux223~0_combout $end
$var wire 1 %# follow_algo|Mux224~2_combout $end
$var wire 1 &# follow_algo|Mux223~1_combout $end
$var wire 1 '# follow_algo|Mux223~2_combout $end
$var wire 1 (# follow_algo|Mux223~3_combout $end
$var wire 1 )# follow_algo|Mux223~4_combout $end
$var wire 1 *# follow_algo|Selector358~0_combout $end
$var wire 1 +# follow_algo|Mux223~5_combout $end
$var wire 1 ,# follow_algo|Mux223~6_combout $end
$var wire 1 -# follow_algo|Mux226~4_combout $end
$var wire 1 .# follow_algo|Selector361~0_combout $end
$var wire 1 /# follow_algo|Mux226~9_combout $end
$var wire 1 0# follow_algo|Mux226~8_combout $end
$var wire 1 1# follow_algo|Mux226~5_combout $end
$var wire 1 2# follow_algo|Mux226~6_combout $end
$var wire 1 3# follow_algo|Mux226~7_combout $end
$var wire 1 4# follow_algo|Equal19~0_combout $end
$var wire 1 5# follow_algo|r_speed_b1_a[6]~4_combout $end
$var wire 1 6# follow_algo|Selector213~0_combout $end
$var wire 1 7# follow_algo|Mux225~3_combout $end
$var wire 1 8# follow_algo|Mux225~0_combout $end
$var wire 1 9# follow_algo|Mux225~1_combout $end
$var wire 1 :# follow_algo|Mux225~2_combout $end
$var wire 1 ;# follow_algo|Mux225~4_combout $end
$var wire 1 <# follow_algo|Mux225~5_combout $end
$var wire 1 =# follow_algo|Mux225~6_combout $end
$var wire 1 ># follow_algo|Mux225~7_combout $end
$var wire 1 ?# follow_algo|r_speed_b1_a[6]~5_combout $end
$var wire 1 @# follow_algo|r_speed_b1_a[6]~6_combout $end
$var wire 1 A# follow_algo|r_speed_b1_a[6]~7_combout $end
$var wire 1 B# follow_algo|r_speed_b1_a[6]~8_combout $end
$var wire 1 C# follow_algo|r_speed_b1_a[6]~9_combout $end
$var wire 1 D# follow_algo|LessThan3~0_combout $end
$var wire 1 E# follow_algo|Mux224~3_combout $end
$var wire 1 F# follow_algo|Selector359~0_combout $end
$var wire 1 G# follow_algo|Mux224~8_combout $end
$var wire 1 H# follow_algo|Mux224~4_combout $end
$var wire 1 I# follow_algo|Mux224~5_combout $end
$var wire 1 J# follow_algo|Mux224~6_combout $end
$var wire 1 K# follow_algo|Mux224~7_combout $end
$var wire 1 L# follow_algo|LessThan3~1_combout $end
$var wire 1 M# follow_algo|LessThan3~2_combout $end
$var wire 1 N# follow_algo|Mux221~2_combout $end
$var wire 1 O# follow_algo|Mux221~1_combout $end
$var wire 1 P# follow_algo|Mux221~3_combout $end
$var wire 1 Q# follow_algo|Mux221~4_combout $end
$var wire 1 R# follow_algo|Mux221~5_combout $end
$var wire 1 S# follow_algo|Mux221~11_combout $end
$var wire 1 T# follow_algo|Mux221~10_combout $end
$var wire 1 U# follow_algo|Mux221~12_combout $end
$var wire 1 V# follow_algo|Mux221~8_combout $end
$var wire 1 W# follow_algo|Mux221~6_combout $end
$var wire 1 X# follow_algo|Mux221~7_combout $end
$var wire 1 Y# follow_algo|Mux221~9_combout $end
$var wire 1 Z# follow_algo|Mux221~13_combout $end
$var wire 1 [# follow_algo|Mux221~14_combout $end
$var wire 1 \# follow_algo|Mux230~0_combout $end
$var wire 1 ]# follow_algo|LessThan3~3_combout $end
$var wire 1 ^# follow_algo|Mux220~0_combout $end
$var wire 1 _# follow_algo|Selector338~0_combout $end
$var wire 1 `# follow_algo|Selector208~0_combout $end
$var wire 1 a# follow_algo|Selector160~0_combout $end
$var wire 1 b# follow_algo|Mux220~1_combout $end
$var wire 1 c# follow_algo|Mux220~2_combout $end
$var wire 1 d# follow_algo|Mux220~3_combout $end
$var wire 1 e# follow_algo|Mux220~4_combout $end
$var wire 1 f# follow_algo|Mux220~combout $end
$var wire 1 g# follow_algo|LessThan3~4_combout $end
$var wire 1 h# follow_algo|previous_node [3] $end
$var wire 1 i# follow_algo|previous_node [2] $end
$var wire 1 j# follow_algo|previous_node [1] $end
$var wire 1 k# follow_algo|previous_node [0] $end
$var wire 1 l# line_sensor|r_data_temp [11] $end
$var wire 1 m# line_sensor|r_data_temp [10] $end
$var wire 1 n# line_sensor|r_data_temp [9] $end
$var wire 1 o# line_sensor|r_data_temp [8] $end
$var wire 1 p# line_sensor|r_data_temp [7] $end
$var wire 1 q# line_sensor|r_data_temp [6] $end
$var wire 1 r# line_sensor|r_data_temp [5] $end
$var wire 1 s# line_sensor|r_data_temp [4] $end
$var wire 1 t# line_sensor|r_data_temp [3] $end
$var wire 1 u# line_sensor|r_data_temp [2] $end
$var wire 1 v# line_sensor|r_data_temp [1] $end
$var wire 1 w# line_sensor|r_data_temp [0] $end
$var wire 1 x# follow_algo|r_speed_b1_a [6] $end
$var wire 1 y# follow_algo|r_speed_b1_a [5] $end
$var wire 1 z# follow_algo|r_speed_b1_a [4] $end
$var wire 1 {# follow_algo|r_speed_b1_a [3] $end
$var wire 1 |# follow_algo|r_speed_b1_a [2] $end
$var wire 1 }# follow_algo|r_speed_b1_a [1] $end
$var wire 1 ~# follow_algo|r_speed_b1_a [0] $end
$var wire 1 !$ line_sensor|r_chip_select [1] $end
$var wire 1 "$ line_sensor|r_chip_select [0] $end
$var wire 1 #$ line_sensor|sclk_counter [4] $end
$var wire 1 $$ line_sensor|sclk_counter [3] $end
$var wire 1 %$ line_sensor|sclk_counter [2] $end
$var wire 1 &$ line_sensor|sclk_counter [1] $end
$var wire 1 '$ line_sensor|sclk_counter [0] $end
$var wire 1 ($ follow_algo|counter [6] $end
$var wire 1 )$ follow_algo|counter [5] $end
$var wire 1 *$ follow_algo|counter [4] $end
$var wire 1 +$ follow_algo|counter [3] $end
$var wire 1 ,$ follow_algo|counter [2] $end
$var wire 1 -$ follow_algo|counter [1] $end
$var wire 1 .$ follow_algo|counter [0] $end
$var wire 1 /$ follow_algo|r_speed_a1_a [6] $end
$var wire 1 0$ follow_algo|r_speed_a1_a [5] $end
$var wire 1 1$ follow_algo|r_speed_a1_a [4] $end
$var wire 1 2$ follow_algo|r_speed_a1_a [3] $end
$var wire 1 3$ follow_algo|r_speed_a1_a [2] $end
$var wire 1 4$ follow_algo|r_speed_a1_a [1] $end
$var wire 1 5$ follow_algo|r_speed_a1_a [0] $end
$var wire 1 6$ line_sensor|current_ch [2] $end
$var wire 1 7$ line_sensor|current_ch [1] $end
$var wire 1 8$ line_sensor|current_ch [0] $end
$var wire 1 9$ follow_algo|r_speed_a1_b [6] $end
$var wire 1 :$ follow_algo|r_speed_a1_b [5] $end
$var wire 1 ;$ follow_algo|r_speed_a1_b [4] $end
$var wire 1 <$ follow_algo|r_speed_a1_b [3] $end
$var wire 1 =$ follow_algo|r_speed_a1_b [2] $end
$var wire 1 >$ follow_algo|r_speed_a1_b [1] $end
$var wire 1 ?$ follow_algo|r_speed_a1_b [0] $end
$var wire 1 @$ follow_algo|current_node [3] $end
$var wire 1 A$ follow_algo|current_node [2] $end
$var wire 1 B$ follow_algo|current_node [1] $end
$var wire 1 C$ follow_algo|current_node [0] $end
$var wire 1 D$ follow_algo|next_node [3] $end
$var wire 1 E$ follow_algo|next_node [2] $end
$var wire 1 F$ follow_algo|next_node [1] $end
$var wire 1 G$ follow_algo|next_node [0] $end
$upscope $end
$upscope $end
$enddefinitions $end
#0
$dumpvars
0!
0"
0#
1$
0%
0&
0'
0(
0)
0*
0+
1,
x-
1.
1/
10
11
02
03
04
05
06
07
08
09
1:
1;
0<
0=
0>
1?
0@
0A
0B
0C
1D
0E
0F
1G
1H
0I
0J
0K
1L
0M
0N
0O
0P
0Q
0R
0S
0T
0U
0V
1W
0X
0Y
0Z
1[
1\
1]
1^
0_
0`
1a
1b
0c
0d
0e
0f
0g
1h
1i
0j
0k
0l
1m
1n
1o
0p
0q
0r
0s
0t
1u
0v
0w
0x
0y
0z
0{
0|
0}
1~
0!!
0"!
0#!
1$!
0%!
1&!
0'!
0(!
0)!
0*!
0+!
0,!
0-!
0.!
1/!
10!
11!
12!
03!
04!
15!
06!
07!
08!
19!
1:!
1;!
0<!
1=!
0>!
1?!
0@!
1A!
0B!
0C!
0D!
0E!
0F!
0G!
0H!
0I!
0J!
0K!
0L!
0M!
0N!
0O!
0P!
0Q!
0R!
0S!
0T!
0U!
0V!
0W!
0X!
0Y!
0Z!
0[!
0\!
0]!
0^!
0_!
0`!
0a!
0b!
0c!
0d!
0e!
0f!
0g!
0h!
0i!
0j!
0k!
0l!
0m!
0n!
0o!
0p!
0q!
1r!
1s!
0t!
0u!
0v!
0w!
0x!
0y!
0z!
0{!
0|!
1}!
0~!
0!"
0""
0#"
0$"
0%"
0&"
1'"
1("
1)"
1*"
1+"
1,"
1-"
1."
1/"
10"
01"
12"
03"
14"
15"
06"
17"
08"
19"
0:"
0;"
0<"
0="
0>"
1?"
1@"
0A"
1B"
0C"
1D"
0E"
1F"
1G"
0H"
0I"
0J"
0K"
1L"
0M"
0N"
0O"
0P"
0Q"
1R"
0S"
1T"
0U"
1V"
0W"
1X"
1Y"
0Z"
0["
1\"
0]"
0^"
0_"
0`"
0a"
0b"
0c"
0d"
0e"
0f"
0g"
0h"
0i"
0j"
0k"
0l"
0m"
0n"
1o"
1p"
0q"
0r"
0s"
0t"
0u"
0v"
0w"
0x"
0y"
1z"
0{"
1|"
1}"
1~"
1!#
0"#
0##
0$#
0%#
1&#
0'#
0(#
0)#
0*#
0+#
0,#
0-#
0.#
0/#
00#
01#
02#
03#
14#
05#
06#
07#
18#
09#
0:#
0;#
0<#
1=#
0>#
1?#
1@#
1A#
1B#
0C#
0D#
0E#
0F#
0G#
0H#
0I#
0J#
0K#
0L#
0M#
0N#
0O#
0P#
0Q#
0R#
1S#
0T#
0U#
0V#
1W#
0X#
0Y#
0Z#
0[#
1\#
0]#
1^#
0_#
0`#
0a#
1b#
1c#
1d#
1e#
1f#
0g#
0k#
0j#
0i#
0h#
zw#
0v#
0u#
0t#
0s#
0r#
0q#
0p#
0o#
0n#
0m#
0l#
0~#
0}#
0|#
0{#
zz#
0y#
0x#
0"$
0!$
0'$
0&$
0%$
0$$
0#$
0.$
0-$
0,$
0+$
0*$
0)$
0($
05$
04$
03$
z2$
z1$
00$
0/$
08$
07$
06$
0?$
z>$
z=$
z<$
z;$
z:$
z9$
0C$
0B$
0A$
0@$
zG$
0F$
zE$
zD$
$end
#1000
1!
1"
1U
1V
18
19
13
1%
1.$
1'$
16"
04"
1C
1<
0:
09"
07"
0H
0;
1=
05"
1J
1:"
0G
1>
18"
1;"
#2000
0!
0"
0U
0V
08
09
03
0%
1"$
01
0$
#2053
1#
1C!
1c!
1`!
#3000
1!
1"
1U
1V
18
19
13
1%
1,$
1-$
0.$
1&$
0'$
1C"
0:"
19"
17"
06"
14"
0C
0?
0=
0<
1:
0F"
0D"
0C"
1:"
07"
1H
1G
0>
1;
1@
1?
1=
1e!
0;"
08"
15"
1<"
0G"
1F"
1D"
0c!
0`!
1D!
1Y!
0G
0@
1>
1E"
1;"
18"
1="
0<"
1G"
1]!
0Y!
1H"
0E"
1f!
0="
0]!
1>"
0H"
0f!
0>"
#4000
0!
0"
0U
0V
08
09
03
0%
#5000
1!
1"
1U
1V
18
19
13
1%
1.$
1'$
16"
04"
1K
1<
0:
17"
0?
0=
0e!
0H
0;
05"
1@
1G
0>
1c!
1`!
0D!
08"
0G
#6000
0!
0"
0U
0V
08
09
03
0%
#6653
0#
0C!
0c!
0`!
#7000
1!
1"
1U
1V
18
19
13
1%
0-$
0.$
1%$
0&$
0'$
0o"
09"
07"
06"
14"
1A
0@
1?
1=
0<
1:
1C"
0:"
19"
17"
1B
0A
1@
1>
0=
1H
1;
18"
15"
0F"
0D"
0C"
1:"
1\!
1H!
1B!
0H
0B
0>
0;"
08"
1<"
0G"
1F"
1D"
0\!
0H!
0B!
1H
1E"
1;"
1="
0<"
1G"
1H"
0E"
0="
1>"
0H"
0>"
#8000
0!
0"
0U
0V
08
09
03
0%
#9000
1!
1"
1U
1V
18
19
13
1%
1.$
1'$
0p"
16"
04"
1<
0:
09"
07"
1=
0H
0;
05"
1C"
0:"
1Y!
1>
18"
0F"
0D"
1b!
0;"
1<"
0G"
1E"
1="
1H"
1>"
#10000
0!
0"
0U
0V
08
09
03
0%
#11000
1!
1"
1U
1V
18
19
13
1%
1*$
1+$
1)$
0,$
1-$
0.$
1&$
0'$
1o"
1I"
0<"
1G"
1F"
1D"
0B"
0?"
0="
0C"
1:"
19"
17"
06"
14"
0K
0?
0=
0<
1:
1B"
1?"
1="
0G"
0@"
0D"
0:"
07"
1A
0@
0Y!
0>
1?
1=
1H
1;
1A"
0>"
1@"
1B
0b!
0A
1@
1>
1>"
15"
1\!
1M!
1H!
1B!
0H
0B
1Y!
0A"
1b!
0\!
0M!
0H!
0B!
1H
#12000
0!
0"
0U
0V
08
09
03
0%
#12053
1#
1C!
1e!
1]!
1D!
1f!
#13000
1!
1"
1U
1V
18
19
13
1%
1.$
1m#
1'$
16"
04"
1g!
1<
0:
17"
1h!
0?
0=
0H
0;
05"
1A
0@
0Y!
0>
1c!
1`!
0]!
1Z!
0D!
08"
1B
0b!
1G
0Z!
0f!
1F!
1B!
1d!
#14000
0!
0"
0U
0V
08
09
03
0%
#15000
1!
1"
1U
1V
18
19
13
1%
0-$
0.$
1n#
1$$
0%$
0&$
0'$
09"
07"
06"
14"
0D
0B
0A
1@
1?
1=
0<
1:
1:"
19"
17"
1E
0F!
0B!
1H
1D
1B
1Y!
0G
0@
1>
0=
1;
18"
15"
0:"
0Y!
1F
0E
1P!
0H
1]!
1G
0>
0`!
1D!
1;"
08"
0d!
1f!
1a!
0]!
0c!
0P!
0D!
1B!
0F
0;"
0f!
0a!
1c!
1F!
1D!
1d!
1E!
#16000
0!
0"
0U
0V
08
09
03
0%
#16653
0#
0C!
0e!
0D!
0E!
